Draws stratifed sample without replacement using proportional allocation — ssamp • sampler
…
strata
variable in sampling data frame by which to stratify (e.g. region)

over
(optional) desired oversampling proportion (defaults to 0; takes value between 0 and 1 as input)

    Value

Returns stratified sample without replacement

    Examples

ssamp(df=albania, n=360, strata=qarku, over=0.1)
#> # A tibble: 395 × 45
#>    qarku  Q_ID bashkia       BAS_ID zaz   njesiaAdministr… COM_ID qvKod zgjedhes
#>    <fct> <int> <fct>          <int> <fct> <fct>             <int> <fct>    <int>
#>  1 Berat     1 Kucove            13 ZAZ … "Lumas"            1104 "\"3…      366
#>  2 Berat     1 Kucove            13 ZAZ … "Lumas"            1104 "\"3…      264
#>  3 Berat     1 Ura Vajgurore     19 ZAZ … "Poshnje"          1106 "\"3…      654
#>  4 Berat     1 Berat             11 ZAZ … "Berat "           1101 "\"3…      535
#>  5 Berat     1 Kucove            13 ZAZ … "Kucove"           1201 "\"3…      764
#>  6 Berat     1 Kucove            13 ZAZ … "Perondi"          1203 "\"3…      347
#>  7 Berat     1 Ura Vajgurore     19 ZAZ … "Poshnje"          1106 "\"3…      381
#>  8 Berat     1 Skrapar           17 ZAZ … "Zhepe"            1310 "\"3…      334
#>  9 Berat     1 Skrapar           17 ZAZ … "Gjerbes"          1304 "\"3…      349
#> 10 Berat     1 Skrapar           17 ZAZ … "Potom"            1307 "\"3…      286
#> # … with 385 more rows, and 36 more variables: meshkuj <int>, femra <int>,
#> #   totalSeats <int>, vendndodhja <fct>, ambienti <fct>, totalVoters <int>,
#> #   femVoters <int>, maleVoters <int>, unusedBallots <int>,
#> #   damagedBallots <int>, ballotsCast <int>, invalidVotes <int>,
#> #   validVotes <int>, lsi <int>, ps <int>, pkd <int>, sfida <int>, pr <int>,
#> #   pd <int>, pbdksh <int>, adk <int>, psd <int>, ad <int>, frd <int>,
#> #   pds <int>, pdiu <int>, aak <int>, mega <int>, pksh <int>, apd <int>, …
…
